<?xml version="1.0" encoding="utf-8"?>
<!DOCTYPE eagle SYSTEM "eagle.dtd">
<eagle version="6.4">
<drawing>
<settings>
<setting alwaysvectorfont="no"/>
<setting verticaltext="up"/>
</settings>
<grid distance="0.05" unitdist="inch" unit="inch" style="lines" multiple="1" display="yes" altdistance="0.025" altunitdist="inch" altunit="inch"/>
<layers>
<layer number="1" name="Top" color="4" fill="1" visible="yes" active="yes"/>
<layer number="16" name="Bottom" color="1" fill="1" visible="yes" active="yes"/>
<layer number="17" name="Pads" color="2" fill="1" visible="yes" active="yes"/>
<layer number="18" name="Vias" color="2" fill="1" visible="yes" active="yes"/>
<layer number="19" name="Unrouted" color="6" fill="1" visible="yes" active="yes"/>
<layer number="20" name="Dimension" color="15" fill="1" visible="yes" active="yes"/>
<layer number="21" name="tPlace" color="7" fill="1" visible="yes" active="yes"/>
<layer number="22" name="bPlace" color="7" fill="1" visible="yes" active="yes"/>
<layer number="23" name="tOrigins" color="15" fill="1" visible="yes" active="yes"/>
<layer number="24" name="bOrigins" color="15" fill="1" visible="yes" active="yes"/>
<layer number="25" name="tNames" color="7" fill="1" visible="yes" active="yes"/>
<layer number="26" name="bNames" color="7" fill="1" visible="yes" active="yes"/>
<layer number="27" name="tValues" color="7" fill="1" visible="yes" active="yes"/>
<layer number="28" name="bValues" color="7" fill="1" visible="yes" active="yes"/>
<layer number="29" name="tStop" color="7" fill="3" visible="no" active="yes"/>
<layer number="30" name="bStop" color="7" fill="6" visible="no" active="yes"/>
<layer number="31" name="tCream" color="7" fill="4" visible="no" active="yes"/>
<layer number="32" name="bCream" color="7" fill="5" visible="no" active="yes"/>
<layer number="33" name="tFinish" color="6" fill="3" visible="no" active="yes"/>
<layer number="34" name="bFinish" color="6" fill="6" visible="no" active="yes"/>
<layer number="35" name="tGlue" color="7" fill="4" visible="no" active="yes"/>
<layer number="36" name="bGlue" color="7" fill="5" visible="no" active="yes"/>
<layer number="37" name="tTest" color="7" fill="1" visible="no" active="yes"/>
<layer number="38" name="bTest" color="7" fill="1" visible="no" active="yes"/>
<layer number="39" name="tKeepout" color="4" fill="11" visible="yes" active="yes"/>
<layer number="40" name="bKeepout" color="1" fill="11" visible="yes" active="yes"/>
<layer number="41" name="tRestrict" color="4" fill="10" visible="yes" active="yes"/>
<layer number="42" name="bRestrict" color="1" fill="10" visible="yes" active="yes"/>
<layer number="43" name="vRestrict" color="2" fill="10" visible="yes" active="yes"/>
<layer number="44" name="Drills" color="7" fill="1" visible="no" active="yes"/>
<layer number="45" name="Holes" color="7" fill="1" visible="no" active="yes"/>
<layer number="46" name="Milling" color="3" fill="1" visible="no" active="yes"/>
<layer number="47" name="Measures" color="7" fill="1" visible="no" active="yes"/>
<layer number="48" name="Document" color="7" fill="1" visible="yes" active="yes"/>
<layer number="49" name="Reference" color="7" fill="1" visible="yes" active="yes"/>
<layer number="50" name="dxf" color="7" fill="1" visible="no" active="no"/>
<layer number="51" name="tDocu" color="7" fill="1" visible="yes" active="yes"/>
<layer number="52" name="bDocu" color="7" fill="1" visible="yes" active="yes"/>
<layer number="53" name="tGND_GNDA" color="7" fill="9" visible="no" active="no"/>
<layer number="54" name="bGND_GNDA" color="1" fill="9" visible="no" active="no"/>
<layer number="56" name="wert" color="7" fill="1" visible="no" active="no"/>
<layer number="57" name="tCAD" color="7" fill="1" visible="no" active="no"/>
<layer number="91" name="Nets" color="2" fill="1" visible="no" active="no"/>
<layer number="92" name="Busses" color="1" fill="1" visible="no" active="no"/>
<layer number="93" name="Pins" color="2" fill="1" visible="no" active="no"/>
<layer number="94" name="Symbols" color="4" fill="1" visible="no" active="no"/>
<layer number="95" name="Names" color="7" fill="1" visible="no" active="no"/>
<layer number="96" name="Values" color="7" fill="1" visible="no" active="no"/>
<layer number="97" name="Info" color="7" fill="1" visible="no" active="no"/>
<layer number="98" name="Guide" color="6" fill="1" visible="no" active="no"/>
<layer number="99" name="SpiceOrder" color="7" fill="1" visible="no" active="no"/>
<layer number="100" name="Muster" color="7" fill="1" visible="no" active="no"/>
<layer number="101" name="Patch_Top" color="12" fill="4" visible="yes" active="yes"/>
<layer number="102" name="Vscore" color="7" fill="1" visible="yes" active="yes"/>
<layer number="103" name="tMap" color="7" fill="1" visible="yes" active="yes"/>
<layer number="104" name="Name" color="16" fill="1" visible="yes" active="yes"/>
<layer number="105" name="tPlate" color="7" fill="1" visible="yes" active="yes"/>
<layer number="106" name="bPlate" color="7" fill="1" visible="yes" active="yes"/>
<layer number="107" name="Crop" color="7" fill="1" visible="yes" active="yes"/>
<layer number="108" name="tplace-old" color="10" fill="1" visible="yes" active="yes"/>
<layer number="109" name="ref-old" color="11" fill="1" visible="yes" active="yes"/>
<layer number="110" name="fp0" color="7" fill="1" visible="no" active="yes"/>
<layer number="111" name="LPC17xx" color="7" fill="1" visible="no" active="yes"/>
<layer number="112" name="tSilk" color="7" fill="1" visible="no" active="yes"/>
<layer number="113" name="IDFDebug" color="4" fill="1" visible="no" active="yes"/>
<layer number="116" name="Patch_BOT" color="9" fill="4" visible="yes" active="yes"/>
<layer number="121" name="_tsilk" color="7" fill="1" visible="yes" active="yes"/>
<layer number="122" name="_bsilk" color="7" fill="1" visible="yes" active="yes"/>
<layer number="123" name="tTestmark" color="7" fill="1" visible="no" active="yes"/>
<layer number="124" name="bTestmark" color="7" fill="1" visible="no" active="yes"/>
<layer number="125" name="_tNames" color="7" fill="1" visible="yes" active="yes"/>
<layer number="126" name="_bNames" color="7" fill="1" visible="no" active="yes"/>
<layer number="127" name="_tValues" color="7" fill="1" visible="no" active="yes"/>
<layer number="128" name="_bValues" color="7" fill="1" visible="no" active="yes"/>
<layer number="131" name="tAdjust" color="7" fill="1" visible="no" active="yes"/>
<layer number="132" name="bAdjust" color="7" fill="1" visible="no" active="yes"/>
<layer number="144" name="Drill_legend" color="7" fill="1" visible="yes" active="yes"/>
<layer number="150" name="Notes" color="7" fill="1" visible="no" active="yes"/>
<layer number="151" name="HeatSink" color="7" fill="1" visible="yes" active="yes"/>
<layer number="152" name="_bDocu" color="7" fill="1" visible="no" active="yes"/>
<layer number="153" name="FabDoc1" color="7" fill="1" visible="no" active="yes"/>
<layer number="154" name="FabDoc2" color="7" fill="1" visible="no" active="yes"/>
<layer number="155" name="FabDoc3" color="7" fill="1" visible="no" active="yes"/>
<layer number="199" name="Contour" color="7" fill="1" visible="yes" active="yes"/>
<layer number="200" name="200bmp" color="1" fill="10" visible="yes" active="yes"/>
<layer number="201" name="201bmp" color="2" fill="10" visible="yes" active="yes"/>
<layer number="202" name="202bmp" color="3" fill="10" visible="yes" active="yes"/>
<layer number="203" name="203bmp" color="4" fill="10" visible="yes" active="yes"/>
<layer number="204" name="204bmp" color="5" fill="10" visible="yes" active="yes"/>
<layer number="205" name="205bmp" color="6" fill="10" visible="yes" active="yes"/>
<layer number="206" name="206bmp" color="7" fill="10" visible="yes" active="yes"/>
<layer number="207" name="207bmp" color="8" fill="10" visible="yes" active="yes"/>
<layer number="208" name="208bmp" color="9" fill="10" visible="yes" active="yes"/>
<layer number="209" name="209bmp" color="7" fill="1" visible="yes" active="yes"/>
<layer number="210" name="210bmp" color="7" fill="1" visible="yes" active="yes"/>
<layer number="211" name="211bmp" color="7" fill="1" visible="yes" active="yes"/>
<layer number="212" name="212bmp" color="7" fill="1" visible="yes" active="yes"/>
<layer number="213" name="213bmp" color="7" fill="1" visible="yes" active="yes"/>
<layer number="214" name="214bmp" color="7" fill="1" visible="yes" active="yes"/>
<layer number="215" name="215bmp" color="7" fill="1" visible="yes" active="yes"/>
<layer number="216" name="216bmp" color="7" fill="1" visible="yes" active="yes"/>
<layer number="217" name="217bmp" color="18" fill="1" visible="no" active="no"/>
<layer number="218" name="218bmp" color="19" fill="1" visible="no" active="no"/>
<layer number="219" name="219bmp" color="20" fill="1" visible="no" active="no"/>
<layer number="220" name="220bmp" color="21" fill="1" visible="no" active="no"/>
<layer number="221" name="221bmp" color="22" fill="1" visible="no" active="no"/>
<layer number="222" name="222bmp" color="23" fill="1" visible="no" active="no"/>
<layer number="223" name="223bmp" color="24" fill="1" visible="no" active="no"/>
<layer number="224" name="224bmp" color="25" fill="1" visible="no" active="no"/>
<layer number="248" name="Housing" color="7" fill="1" visible="no" active="yes"/>
<layer number="249" name="Edge" color="7" fill="1" visible="no" active="yes"/>
<layer number="250" name="Descript" color="3" fill="1" visible="no" active="no"/>
<layer number="251" name="SMDround" color="12" fill="11" visible="no" active="no"/>
<layer number="254" name="cooling" color="7" fill="1" visible="yes" active="yes"/>
</layers>
<board>
<plain>
<wire x1="-2.54" y1="-1.27" x2="21.26" y2="-1.27" width="0" layer="20"/>
<wire x1="21.26" y1="-1.27" x2="21.26" y2="11.42" width="0" layer="20"/>
<wire x1="21.26" y1="11.42" x2="-2.54" y2="11.42" width="0" layer="20"/>
<wire x1="-2.54" y1="11.42" x2="-2.54" y2="-1.27" width="0" layer="20"/>
<text x="6.35" y="0" size="1.778" layer="16" rot="MR90">Skeleton</text>
</plain>
<libraries>
<library name="SparkFun-Retired">
<description>&lt;h3&gt;SparkFun Electronics' preferred foot prints&lt;/h3&gt;
In this library you'll find all manner of retired footprints for resistors, capacitors, board names, ICs, etc., that are no longer used in our catalog.&lt;br&gt;&lt;br&gt;
We've spent an enormous amount of time creating and checking these footprints and parts, but it is the end user's responsibility to ensure correctness and suitablity for a given componet or application. If you enjoy using this library, please buy one of our products at www.sparkfun.com.
&lt;br&gt;&lt;br&gt;
&lt;b&gt;Licensing:&lt;/b&gt;Creative Commons ShareAlike 4.0 International - https://creativecommons.org/licenses/by-sa/4.0/
&lt;br&gt;&lt;br&gt;
You are welcome to use this library for commercial purposes. For attribution, we ask that when you begin to sell your device using our footprint, you email us with a link to the product being sold. We want bragging rights that we helped (in a very small part) to create your 8th world wonder. We would like the opportunity to feature your device on our homepage.</description>
<packages>
<package name="SPARKFUN-DIGITALIC_QFN-44">
<wire x1="1.65" y1="-3.5" x2="3.5" y2="-3.5" width="0.2032" layer="21"/>
<wire x1="3.5" y1="-1.65" x2="3.5" y2="-3.5" width="0.2032" layer="21"/>
<wire x1="-1.65" y1="-3.5" x2="-3.5" y2="-3.5" width="0.2032" layer="21"/>
<wire x1="-3.5" y1="-3.5" x2="-3.5" y2="-3.1" width="0.2032" layer="21"/>
<wire x1="3.5" y1="1.65" x2="3.5" y2="3.5" width="0.2032" layer="21"/>
<wire x1="3.5" y1="3.5" x2="1.65" y2="3.5" width="0.2032" layer="21"/>
<wire x1="-3" y1="3.5" x2="-3.5" y2="3" width="0.2032" layer="21"/>
<wire x1="-3.5" y1="3.5" x2="-3.5" y2="-3.5" width="0.127" layer="51"/>
<wire x1="-3.4" y1="-3.5" x2="3.5" y2="-3.5" width="0.127" layer="51"/>
<wire x1="3.5" y1="-3.5" x2="3.5" y2="3.5" width="0.127" layer="51"/>
<wire x1="3.5" y1="3.5" x2="-3.5" y2="3.5" width="0.127" layer="51"/>
<rectangle x1="-2.5" y1="-2.5" x2="2.5" y2="2.5" layer="1"/>
<rectangle x1="-0.5" y1="-0.5" x2="0.5" y2="0.5" layer="29"/>
<smd name="1" x="-3.4" y="2.5" dx="0.8" dy="0.3" layer="1" rot="R180"/>
<smd name="2" x="-3.4" y="2" dx="0.8" dy="0.3" layer="1" rot="R180"/>
<smd name="3" x="-3.4" y="1.5" dx="0.8" dy="0.3" layer="1" rot="R180"/>
<smd name="4" x="-3.4" y="1" dx="0.8" dy="0.3" layer="1" rot="R180"/>
<smd name="5" x="-3.4" y="0.5" dx="0.8" dy="0.3" layer="1" rot="R180"/>
<smd name="6" x="-3.4" y="0" dx="0.8" dy="0.3" layer="1" rot="R180"/>
<smd name="7" x="-3.4" y="-0.5" dx="0.8" dy="0.3" layer="1"/>
<smd name="8" x="-3.4" y="-1" dx="0.8" dy="0.3" layer="1"/>
<smd name="9" x="-3.4" y="-1.5" dx="0.8" dy="0.3" layer="1"/>
<smd name="10" x="-3.4" y="-2" dx="0.8" dy="0.3" layer="1"/>
<smd name="11" x="-3.4" y="-2.5" dx="0.8" dy="0.3" layer="1"/>
<smd name="12" x="-2.5" y="-3.4" dx="0.8" dy="0.3" layer="1" rot="R270"/>
<smd name="13" x="-2" y="-3.4" dx="0.8" dy="0.3" layer="1" rot="R270"/>
<smd name="14" x="-1.5" y="-3.4" dx="0.8" dy="0.3" layer="1" rot="R270"/>
<smd name="15" x="-1" y="-3.4" dx="0.8" dy="0.3" layer="1" rot="R270"/>
<smd name="16" x="-0.5" y="-3.4" dx="0.8" dy="0.3" layer="1" rot="R270"/>
<smd name="17" x="0" y="-3.4" dx="0.8" dy="0.3" layer="1" rot="R270"/>
<smd name="18" x="0.5" y="-3.4" dx="0.8" dy="0.3" layer="1" rot="R90"/>
<smd name="19" x="1" y="-3.4" dx="0.8" dy="0.3" layer="1" rot="R90"/>
<smd name="20" x="1.5" y="-3.4" dx="0.8" dy="0.3" layer="1" rot="R90"/>
<smd name="21" x="2" y="-3.4" dx="0.8" dy="0.3" layer="1" rot="R90"/>
<smd name="22" x="2.5" y="-3.4" dx="0.8" dy="0.3" layer="1" rot="R90"/>
<smd name="23" x="3.4" y="-2.5" dx="0.8" dy="0.3" layer="1"/>
<smd name="24" x="3.4" y="-2" dx="0.8" dy="0.3" layer="1"/>
<smd name="25" x="3.4" y="-1.5" dx="0.8" dy="0.3" layer="1"/>
<smd name="26" x="3.4" y="-1" dx="0.8" dy="0.3" layer="1"/>
<smd name="27" x="3.4" y="-0.5" dx="0.8" dy="0.3" layer="1"/>
<smd name="28" x="3.4" y="0" dx="0.8" dy="0.3" layer="1"/>
<smd name="29" x="3.4" y="0.5" dx="0.8" dy="0.3" layer="1" rot="R180"/>
<smd name="30" x="3.4" y="1" dx="0.8" dy="0.3" layer="1" rot="R180"/>
<smd name="31" x="3.4" y="1.5" dx="0.8" dy="0.3" layer="1" rot="R180"/>
<smd name="32" x="3.4" y="2" dx="0.8" dy="0.3" layer="1" rot="R180"/>
<smd name="33" x="3.4" y="2.5" dx="0.8" dy="0.3" layer="1" rot="R180"/>
<smd name="34" x="2.5" y="3.4" dx="0.8" dy="0.3" layer="1" rot="R90"/>
<smd name="35" x="2" y="3.4" dx="0.8" dy="0.3" layer="1" rot="R90"/>
<smd name="36" x="1.5" y="3.4" dx="0.8" dy="0.3" layer="1" rot="R90"/>
<smd name="37" x="1" y="3.4" dx="0.8" dy="0.3" layer="1" rot="R90"/>
<smd name="38" x="0.5" y="3.4" dx="0.8" dy="0.3" layer="1" rot="R90"/>
<smd name="39" x="0" y="3.4" dx="0.8" dy="0.3" layer="1" rot="R90"/>
<smd name="40" x="-0.5" y="3.4" dx="0.8" dy="0.3" layer="1" rot="R270"/>
<smd name="41" x="-1" y="3.4" dx="0.8" dy="0.3" layer="1" rot="R270"/>
<smd name="42" x="-1.5" y="3.4" dx="0.8" dy="0.3" layer="1" rot="R270"/>
<smd name="43" x="-2" y="3.4" dx="0.8" dy="0.3" layer="1" rot="R270"/>
<smd name="44" x="-2.5" y="3.4" dx="0.8" dy="0.3" layer="1" rot="R270"/>
<text x="-2.45" y="4.8" size="1.27" layer="25">&gt;NAME</text>
<text x="-2.5" y="-6.15" size="1.27" layer="27">&gt;VALUE</text>
</package>
</packages>
</library>
<library name="SparkFun-Connectors">
<description>&lt;h3&gt;SparkFun Electronics' preferred foot prints&lt;/h3&gt;
In this library you'll find connectors and sockets- basically anything that can be plugged into or onto.&lt;br&gt;&lt;br&gt;
We've spent an enormous amount of time creating and checking these footprints and parts, but it is the end user's responsibility to ensure correctness and suitablity for a given componet or application. If you enjoy using this library, please buy one of our products at www.sparkfun.com.
&lt;br&gt;&lt;br&gt;
&lt;b&gt;Licensing:&lt;/b&gt; Creative Commons ShareAlike 4.0 International - https://creativecommons.org/licenses/by-sa/4.0/ 
&lt;br&gt;&lt;br&gt;
You are welcome to use this library for commercial purposes. For attribution, we ask that when you begin to sell your device using our footprint, you email us with a link to the product being sold. We want bragging rights that we helped (in a very small part) to create your 8th world wonder. We would like the opportunity to feature your device on our homepage.</description>
<packages>
<package name="USB-A-PCB">
<description>Card-edge USB A connector.

For boards designed to be plugged directly into a USB slot. If possible, ensure that your PCB is about 2.4mm thick to fit snugly.</description>
<wire x1="-5" y1="6" x2="3.7" y2="6" width="0.127" layer="51"/>
<wire x1="3.7" y1="6" x2="3.7" y2="-6" width="0.127" layer="51" style="shortdash"/>
<wire x1="3.7" y1="-6" x2="-5" y2="-6" width="0.127" layer="51"/>
<wire x1="-5" y1="-6" x2="-5" y2="6" width="0.127" layer="51"/>
<smd name="5V" x="-0.2" y="-3.5" dx="7.5" dy="1.5" layer="1"/>
<smd name="USB_M" x="0.3" y="-1" dx="6.5" dy="1" layer="1"/>
<smd name="USB_P" x="0.3" y="1" dx="6.5" dy="1" layer="1"/>
<smd name="GND" x="-0.2" y="3.5" dx="7.5" dy="1.5" layer="1"/>
<text x="-1.27" y="5.08" size="0.4064" layer="25">&gt;Name</text>
<text x="-1.27" y="-5.08" size="0.4064" layer="27">&gt;Value</text>
<text x="-6.35" y="-3.81" size="1.016" layer="48" rot="R90">Card edge</text>
</package>
</packages>
</library>
<library name="SparkFun-FreqCtrl">
<description>&lt;h3&gt;SparkFun Electronics' preferred foot prints&lt;/h3&gt;
In this library you'll find crystals and oscillators and other things that go "tick".&lt;br&gt;&lt;br&gt;
We've spent an enormous amount of time creating and checking these footprints and parts, but it is the end user's responsibility to ensure correctness and suitablity for a given componet or application. If you enjoy using this library, please buy one of our products at www.sparkfun.com.
&lt;br&gt;&lt;br&gt;
&lt;b&gt;Licensing:&lt;/b&gt; Creative Commons ShareAlike 4.0 International - https://creativecommons.org/licenses/by-sa/4.0/ 
&lt;br&gt;&lt;br&gt;
You are welcome to use this library for commercial purposes. For attribution, we ask that when you begin to sell your device using our footprint, you email us with a link to the product being sold. We want bragging rights that we helped (in a very small part) to create your 8th world wonder. We would like the opportunity to feature your device on our homepage.</description>
<packages>
<package name="RESONATOR-SMD">
<wire x1="1.87111875" y1="0.660159375" x2="1.87111875" y2="-0.639840625" width="0.2032" layer="21"/>
<wire x1="-1.878740625" y1="-0.639840625" x2="-1.878740625" y2="0.660159375" width="0.2032" layer="21"/>
<wire x1="-1.6" y1="0.65" x2="1.6" y2="0.65" width="0.127" layer="51"/>
<wire x1="1.6" y1="0.65" x2="1.6" y2="-0.65" width="0.127" layer="51"/>
<wire x1="1.6" y1="-0.65" x2="-1.6" y2="-0.65" width="0.127" layer="51"/>
<wire x1="-1.6" y1="-0.65" x2="-1.6" y2="0.65" width="0.127" layer="51"/>
<smd name="1" x="-1.2" y="0" dx="0.45" dy="1.905" layer="1" roundness="100"/>
<smd name="2" x="0" y="0" dx="0.45" dy="1.905" layer="1" roundness="100"/>
<smd name="3" x="1.2" y="0" dx="0.45" dy="1.905" layer="1" roundness="100"/>
<text x="-1.016" y="1.27" size="0.4064" layer="25">&gt;Name</text>
<text x="-0.9525" y="-1.5875" size="0.4064" layer="27">&gt;Value</text>
<rectangle x1="-1.6332625" y1="-0.6406375" x2="1.6433375" y2="-0.61879375" layer="200"/>
<rectangle x1="-1.6332625" y1="-0.61879375" x2="-1.61141875" y2="-0.59695" layer="200"/>
<rectangle x1="-1.414821875" y1="-0.61879375" x2="-0.999790625" y2="-0.59695" layer="200"/>
<rectangle x1="-0.213403125" y1="-0.61879375" x2="0.201634375" y2="-0.59695" layer="200"/>
<rectangle x1="0.98801875" y1="-0.61879375" x2="1.40305" y2="-0.59695" layer="200"/>
<rectangle x1="1.62149375" y1="-0.61879375" x2="1.6433375" y2="-0.59695" layer="200"/>
<rectangle x1="-1.6332625" y1="-0.59695" x2="-1.61141875" y2="-0.57510625" layer="200"/>
<rectangle x1="-1.414821875" y1="-0.59695" x2="-0.999790625" y2="-0.57510625" layer="200"/>
<rectangle x1="-0.213403125" y1="-0.59695" x2="0.201634375" y2="-0.57510625" layer="200"/>
<rectangle x1="0.98801875" y1="-0.59695" x2="1.40305" y2="-0.57510625" layer="200"/>
<rectangle x1="1.62149375" y1="-0.59695" x2="1.6433375" y2="-0.57510625" layer="200"/>
<rectangle x1="-1.6332625" y1="-0.57510625" x2="-1.61141875" y2="-0.5532625" layer="200"/>
<rectangle x1="-1.414821875" y1="-0.57510625" x2="-0.999790625" y2="-0.5532625" layer="200"/>
<rectangle x1="-0.213403125" y1="-0.57510625" x2="0.201634375" y2="-0.5532625" layer="200"/>
<rectangle x1="0.98801875" y1="-0.57510625" x2="1.40305" y2="-0.5532625" layer="200"/>
<rectangle x1="1.62149375" y1="-0.57510625" x2="1.6433375" y2="-0.5532625" layer="200"/>
<rectangle x1="-1.6332625" y1="-0.5532625" x2="-1.61141875" y2="-0.53141875" layer="200"/>
<rectangle x1="-1.414821875" y1="-0.5532625" x2="-0.999790625" y2="-0.53141875" layer="200"/>
<rectangle x1="-0.213403125" y1="-0.5532625" x2="0.201634375" y2="-0.53141875" layer="200"/>
<rectangle x1="0.98801875" y1="-0.5532625" x2="1.40305" y2="-0.53141875" layer="200"/>
<rectangle x1="1.62149375" y1="-0.5532625" x2="1.6433375" y2="-0.53141875" layer="200"/>
<rectangle x1="-1.6332625" y1="-0.53141875" x2="-1.61141875" y2="-0.509575" layer="200"/>
<rectangle x1="-1.414821875" y1="-0.53141875" x2="-0.999790625" y2="-0.509575" layer="200"/>
<rectangle x1="-0.213403125" y1="-0.53141875" x2="0.201634375" y2="-0.509575" layer="200"/>
<rectangle x1="0.98801875" y1="-0.53141875" x2="1.40305" y2="-0.509575" layer="200"/>
<rectangle x1="1.62149375" y1="-0.53141875" x2="1.6433375" y2="-0.509575" layer="200"/>
<rectangle x1="-1.6332625" y1="-0.509575" x2="-1.61141875" y2="-0.48773125" layer="200"/>
<rectangle x1="-1.414821875" y1="-0.509575" x2="-0.999790625" y2="-0.48773125" layer="200"/>
<rectangle x1="-0.213403125" y1="-0.509575" x2="0.201634375" y2="-0.48773125" layer="200"/>
<rectangle x1="0.98801875" y1="-0.509575" x2="1.40305" y2="-0.48773125" layer="200"/>
<rectangle x1="1.62149375" y1="-0.509575" x2="1.6433375" y2="-0.48773125" layer="200"/>
<rectangle x1="-1.6332625" y1="-0.48773125" x2="-1.61141875" y2="-0.4658875" layer="200"/>
<rectangle x1="-1.414821875" y1="-0.48773125" x2="-0.999790625" y2="-0.4658875" layer="200"/>
<rectangle x1="-0.213403125" y1="-0.48773125" x2="0.201634375" y2="-0.4658875" layer="200"/>
<rectangle x1="0.98801875" y1="-0.48773125" x2="1.40305" y2="-0.4658875" layer="200"/>
<rectangle x1="1.62149375" y1="-0.48773125" x2="1.6433375" y2="-0.4658875" layer="200"/>
<rectangle x1="-1.6332625" y1="-0.4658875" x2="-1.61141875" y2="-0.44404375" layer="200"/>
<rectangle x1="-1.414821875" y1="-0.4658875" x2="-0.999790625" y2="-0.44404375" layer="200"/>
<rectangle x1="-0.213403125" y1="-0.4658875" x2="0.201634375" y2="-0.44404375" layer="200"/>
<rectangle x1="0.98801875" y1="-0.4658875" x2="1.40305" y2="-0.44404375" layer="200"/>
<rectangle x1="1.62149375" y1="-0.4658875" x2="1.6433375" y2="-0.44404375" layer="200"/>
<rectangle x1="-1.6332625" y1="-0.444040625" x2="-1.61141875" y2="-0.422196875" layer="200"/>
<rectangle x1="-1.414821875" y1="-0.444040625" x2="-0.999790625" y2="-0.422196875" layer="200"/>
<rectangle x1="-0.213403125" y1="-0.444040625" x2="0.201634375" y2="-0.422196875" layer="200"/>
<rectangle x1="0.98801875" y1="-0.444040625" x2="1.40305" y2="-0.422196875" layer="200"/>
<rectangle x1="1.62149375" y1="-0.444040625" x2="1.6433375" y2="-0.422196875" layer="200"/>
<rectangle x1="-1.6332625" y1="-0.422196875" x2="-1.61141875" y2="-0.400353125" layer="200"/>
<rectangle x1="-1.414821875" y1="-0.422196875" x2="-0.999790625" y2="-0.400353125" layer="200"/>
<rectangle x1="-0.213403125" y1="-0.422196875" x2="0.201634375" y2="-0.400353125" layer="200"/>
<rectangle x1="0.98801875" y1="-0.422196875" x2="1.40305" y2="-0.400353125" layer="200"/>
<rectangle x1="1.62149375" y1="-0.422196875" x2="1.6433375" y2="-0.400353125" layer="200"/>
<rectangle x1="-1.6332625" y1="-0.400353125" x2="-1.61141875" y2="-0.378509375" layer="200"/>
<rectangle x1="-1.414821875" y1="-0.400353125" x2="-0.999790625" y2="-0.378509375" layer="200"/>
<rectangle x1="-0.213403125" y1="-0.400353125" x2="0.201634375" y2="-0.378509375" layer="200"/>
<rectangle x1="0.98801875" y1="-0.400353125" x2="1.40305" y2="-0.378509375" layer="200"/>
<rectangle x1="1.62149375" y1="-0.400353125" x2="1.6433375" y2="-0.378509375" layer="200"/>
<rectangle x1="-1.6332625" y1="-0.378509375" x2="-1.61141875" y2="-0.356665625" layer="200"/>
<rectangle x1="-1.414821875" y1="-0.378509375" x2="-0.999790625" y2="-0.356665625" layer="200"/>
<rectangle x1="-0.213403125" y1="-0.378509375" x2="0.201634375" y2="-0.356665625" layer="200"/>
<rectangle x1="0.98801875" y1="-0.378509375" x2="1.40305" y2="-0.356665625" layer="200"/>
<rectangle x1="1.62149375" y1="-0.378509375" x2="1.6433375" y2="-0.356665625" layer="200"/>
<rectangle x1="-1.6332625" y1="-0.356665625" x2="-1.61141875" y2="-0.334821875" layer="200"/>
<rectangle x1="-1.414821875" y1="-0.356665625" x2="-0.999790625" y2="-0.334821875" layer="200"/>
<rectangle x1="-0.213403125" y1="-0.356665625" x2="0.201634375" y2="-0.334821875" layer="200"/>
<rectangle x1="0.98801875" y1="-0.356665625" x2="1.40305" y2="-0.334821875" layer="200"/>
<rectangle x1="1.62149375" y1="-0.356665625" x2="1.6433375" y2="-0.334821875" layer="200"/>
<rectangle x1="-1.6332625" y1="-0.334821875" x2="-1.61141875" y2="-0.312978125" layer="200"/>
<rectangle x1="-1.414821875" y1="-0.334821875" x2="-0.999790625" y2="-0.312978125" layer="200"/>
<rectangle x1="-0.213403125" y1="-0.334821875" x2="0.201634375" y2="-0.312978125" layer="200"/>
<rectangle x1="0.98801875" y1="-0.334821875" x2="1.40305" y2="-0.312978125" layer="200"/>
<rectangle x1="1.62149375" y1="-0.334821875" x2="1.6433375" y2="-0.312978125" layer="200"/>
<rectangle x1="-1.6332625" y1="-0.312978125" x2="-1.61141875" y2="-0.291134375" layer="200"/>
<rectangle x1="-1.414821875" y1="-0.312978125" x2="-0.999790625" y2="-0.291134375" layer="200"/>
<rectangle x1="-0.213403125" y1="-0.312978125" x2="0.201634375" y2="-0.291134375" layer="200"/>
<rectangle x1="0.98801875" y1="-0.312978125" x2="1.40305" y2="-0.291134375" layer="200"/>
<rectangle x1="1.62149375" y1="-0.312978125" x2="1.6433375" y2="-0.291134375" layer="200"/>
<rectangle x1="-1.6332625" y1="-0.291134375" x2="-1.61141875" y2="-0.269290625" layer="200"/>
<rectangle x1="-1.414821875" y1="-0.291134375" x2="-0.999790625" y2="-0.269290625" layer="200"/>
<rectangle x1="-0.213403125" y1="-0.291134375" x2="0.201634375" y2="-0.269290625" layer="200"/>
<rectangle x1="0.98801875" y1="-0.291134375" x2="1.40305" y2="-0.269290625" layer="200"/>
<rectangle x1="1.62149375" y1="-0.291134375" x2="1.6433375" y2="-0.269290625" layer="200"/>
<rectangle x1="-1.6332625" y1="-0.269290625" x2="-1.61141875" y2="-0.247446875" layer="200"/>
<rectangle x1="-1.414821875" y1="-0.269290625" x2="-0.999790625" y2="-0.247446875" layer="200"/>
<rectangle x1="-0.213403125" y1="-0.269290625" x2="0.201634375" y2="-0.247446875" layer="200"/>
<rectangle x1="0.98801875" y1="-0.269290625" x2="1.40305" y2="-0.247446875" layer="200"/>
<rectangle x1="1.62149375" y1="-0.269290625" x2="1.6433375" y2="-0.247446875" layer="200"/>
<rectangle x1="-1.6332625" y1="-0.247446875" x2="-1.61141875" y2="-0.225603125" layer="200"/>
<rectangle x1="-1.414821875" y1="-0.247446875" x2="-0.999790625" y2="-0.225603125" layer="200"/>
<rectangle x1="-0.213403125" y1="-0.247446875" x2="0.201634375" y2="-0.225603125" layer="200"/>
<rectangle x1="0.98801875" y1="-0.247446875" x2="1.40305" y2="-0.225603125" layer="200"/>
<rectangle x1="1.62149375" y1="-0.247446875" x2="1.6433375" y2="-0.225603125" layer="200"/>
<rectangle x1="-1.6332625" y1="-0.225603125" x2="-1.61141875" y2="-0.203759375" layer="200"/>
<rectangle x1="-1.414821875" y1="-0.225603125" x2="-0.999790625" y2="-0.203759375" layer="200"/>
<rectangle x1="-0.213403125" y1="-0.225603125" x2="0.201634375" y2="-0.203759375" layer="200"/>
<rectangle x1="0.98801875" y1="-0.225603125" x2="1.40305" y2="-0.203759375" layer="200"/>
<rectangle x1="1.62149375" y1="-0.225603125" x2="1.6433375" y2="-0.203759375" layer="200"/>
<rectangle x1="-1.6332625" y1="-0.203759375" x2="-1.61141875" y2="-0.181915625" layer="200"/>
<rectangle x1="-1.414821875" y1="-0.203759375" x2="-0.999790625" y2="-0.181915625" layer="200"/>
<rectangle x1="-0.213403125" y1="-0.203759375" x2="0.201634375" y2="-0.181915625" layer="200"/>
<rectangle x1="0.98801875" y1="-0.203759375" x2="1.40305" y2="-0.181915625" layer="200"/>
<rectangle x1="1.62149375" y1="-0.203759375" x2="1.6433375" y2="-0.181915625" layer="200"/>
<rectangle x1="-1.6332625" y1="-0.1819125" x2="-1.61141875" y2="-0.16006875" layer="200"/>
<rectangle x1="-1.414821875" y1="-0.1819125" x2="-0.999790625" y2="-0.16006875" layer="200"/>
<rectangle x1="-0.213403125" y1="-0.1819125" x2="0.201634375" y2="-0.16006875" layer="200"/>
<rectangle x1="0.98801875" y1="-0.1819125" x2="1.40305" y2="-0.16006875" layer="200"/>
<rectangle x1="1.62149375" y1="-0.1819125" x2="1.6433375" y2="-0.16006875" layer="200"/>
<rectangle x1="-1.6332625" y1="-0.16006875" x2="-1.61141875" y2="-0.138225" layer="200"/>
<rectangle x1="-1.414821875" y1="-0.16006875" x2="-0.999790625" y2="-0.138225" layer="200"/>
<rectangle x1="-0.213403125" y1="-0.16006875" x2="0.201634375" y2="-0.138225" layer="200"/>
<rectangle x1="0.98801875" y1="-0.16006875" x2="1.40305" y2="-0.138225" layer="200"/>
<rectangle x1="1.62149375" y1="-0.16006875" x2="1.6433375" y2="-0.138225" layer="200"/>
<rectangle x1="-1.6332625" y1="-0.138225" x2="-1.61141875" y2="-0.11638125" layer="200"/>
<rectangle x1="-1.414821875" y1="-0.138225" x2="-0.999790625" y2="-0.11638125" layer="200"/>
<rectangle x1="-0.213403125" y1="-0.138225" x2="0.201634375" y2="-0.11638125" layer="200"/>
<rectangle x1="0.98801875" y1="-0.138225" x2="1.40305" y2="-0.11638125" layer="200"/>
<rectangle x1="1.62149375" y1="-0.138225" x2="1.6433375" y2="-0.11638125" layer="200"/>
<rectangle x1="-1.6332625" y1="-0.11638125" x2="-1.61141875" y2="-0.0945375" layer="200"/>
<rectangle x1="-1.414821875" y1="-0.11638125" x2="-0.999790625" y2="-0.0945375" layer="200"/>
<rectangle x1="-0.213403125" y1="-0.11638125" x2="0.201634375" y2="-0.0945375" layer="200"/>
<rectangle x1="0.98801875" y1="-0.11638125" x2="1.40305" y2="-0.0945375" layer="200"/>
<rectangle x1="1.62149375" y1="-0.11638125" x2="1.6433375" y2="-0.0945375" layer="200"/>
<rectangle x1="-1.6332625" y1="-0.0945375" x2="-1.61141875" y2="-0.07269375" layer="200"/>
<rectangle x1="-1.414821875" y1="-0.0945375" x2="-0.999790625" y2="-0.07269375" layer="200"/>
<rectangle x1="-0.213403125" y1="-0.0945375" x2="0.201634375" y2="-0.07269375" layer="200"/>
<rectangle x1="0.98801875" y1="-0.0945375" x2="1.40305" y2="-0.07269375" layer="200"/>
<rectangle x1="1.62149375" y1="-0.0945375" x2="1.6433375" y2="-0.07269375" layer="200"/>
<rectangle x1="-1.6332625" y1="-0.07269375" x2="-1.61141875" y2="-0.05085" layer="200"/>
<rectangle x1="-1.414821875" y1="-0.07269375" x2="-0.999790625" y2="-0.05085" layer="200"/>
<rectangle x1="-0.213403125" y1="-0.07269375" x2="0.201634375" y2="-0.05085" layer="200"/>
<rectangle x1="0.98801875" y1="-0.07269375" x2="1.40305" y2="-0.05085" layer="200"/>
<rectangle x1="1.62149375" y1="-0.07269375" x2="1.6433375" y2="-0.05085" layer="200"/>
<rectangle x1="-1.6332625" y1="-0.05085" x2="-1.61141875" y2="-0.02900625" layer="200"/>
<rectangle x1="-1.414821875" y1="-0.05085" x2="-0.999790625" y2="-0.02900625" layer="200"/>
<rectangle x1="-0.213403125" y1="-0.05085" x2="0.201634375" y2="-0.02900625" layer="200"/>
<rectangle x1="0.98801875" y1="-0.05085" x2="1.40305" y2="-0.02900625" layer="200"/>
<rectangle x1="1.62149375" y1="-0.05085" x2="1.6433375" y2="-0.02900625" layer="200"/>
<rectangle x1="-1.6332625" y1="-0.02900625" x2="-1.61141875" y2="-0.0071625" layer="200"/>
<rectangle x1="-1.414821875" y1="-0.02900625" x2="-0.999790625" y2="-0.0071625" layer="200"/>
<rectangle x1="-0.213403125" y1="-0.02900625" x2="0.201634375" y2="-0.0071625" layer="200"/>
<rectangle x1="0.98801875" y1="-0.02900625" x2="1.40305" y2="-0.0071625" layer="200"/>
<rectangle x1="1.62149375" y1="-0.02900625" x2="1.6433375" y2="-0.0071625" layer="200"/>
<rectangle x1="-1.6332625" y1="-0.0071625" x2="-1.61141875" y2="0.01468125" layer="200"/>
<rectangle x1="-1.414821875" y1="-0.0071625" x2="-0.999790625" y2="0.01468125" layer="200"/>
<rectangle x1="-0.213403125" y1="-0.0071625" x2="0.201634375" y2="0.01468125" layer="200"/>
<rectangle x1="0.98801875" y1="-0.0071625" x2="1.40305" y2="0.01468125" layer="200"/>
<rectangle x1="1.62149375" y1="-0.0071625" x2="1.6433375" y2="0.01468125" layer="200"/>
<rectangle x1="-1.6332625" y1="0.01468125" x2="-1.61141875" y2="0.036525" layer="200"/>
<rectangle x1="-1.414821875" y1="0.01468125" x2="-0.999790625" y2="0.036525" layer="200"/>
<rectangle x1="-0.213403125" y1="0.01468125" x2="0.201634375" y2="0.036525" layer="200"/>
<rectangle x1="0.98801875" y1="0.01468125" x2="1.40305" y2="0.036525" layer="200"/>
<rectangle x1="1.62149375" y1="0.01468125" x2="1.6433375" y2="0.036525" layer="200"/>
<rectangle x1="-1.6332625" y1="0.036525" x2="-1.61141875" y2="0.05836875" layer="200"/>
<rectangle x1="-1.414821875" y1="0.036525" x2="-0.999790625" y2="0.05836875" layer="200"/>
<rectangle x1="-0.213403125" y1="0.036525" x2="0.201634375" y2="0.05836875" layer="200"/>
<rectangle x1="0.98801875" y1="0.036525" x2="1.40305" y2="0.05836875" layer="200"/>
<rectangle x1="1.62149375" y1="0.036525" x2="1.6433375" y2="0.05836875" layer="200"/>
<rectangle x1="-1.6332625" y1="0.05836875" x2="-1.61141875" y2="0.0802125" layer="200"/>
<rectangle x1="-1.414821875" y1="0.05836875" x2="-0.999790625" y2="0.0802125" layer="200"/>
<rectangle x1="-0.213403125" y1="0.05836875" x2="0.201634375" y2="0.0802125" layer="200"/>
<rectangle x1="0.98801875" y1="0.05836875" x2="1.40305" y2="0.0802125" layer="200"/>
<rectangle x1="1.62149375" y1="0.05836875" x2="1.6433375" y2="0.0802125" layer="200"/>
<rectangle x1="-1.6332625" y1="0.0802125" x2="-1.61141875" y2="0.10205625" layer="200"/>
<rectangle x1="-1.414821875" y1="0.0802125" x2="-0.999790625" y2="0.10205625" layer="200"/>
<rectangle x1="-0.213403125" y1="0.0802125" x2="0.201634375" y2="0.10205625" layer="200"/>
<rectangle x1="0.98801875" y1="0.0802125" x2="1.40305" y2="0.10205625" layer="200"/>
<rectangle x1="1.62149375" y1="0.0802125" x2="1.6433375" y2="0.10205625" layer="200"/>
<rectangle x1="-1.6332625" y1="0.102059375" x2="-1.61141875" y2="0.123903125" layer="200"/>
<rectangle x1="-1.414821875" y1="0.102059375" x2="-0.999790625" y2="0.123903125" layer="200"/>
<rectangle x1="-0.213403125" y1="0.102059375" x2="0.201634375" y2="0.123903125" layer="200"/>
<rectangle x1="0.98801875" y1="0.102059375" x2="1.40305" y2="0.123903125" layer="200"/>
<rectangle x1="1.62149375" y1="0.102059375" x2="1.6433375" y2="0.123903125" layer="200"/>
<rectangle x1="-1.6332625" y1="0.123903125" x2="-1.61141875" y2="0.145746875" layer="200"/>
<rectangle x1="-1.414821875" y1="0.123903125" x2="-0.999790625" y2="0.145746875" layer="200"/>
<rectangle x1="-0.213403125" y1="0.123903125" x2="0.201634375" y2="0.145746875" layer="200"/>
<rectangle x1="0.98801875" y1="0.123903125" x2="1.40305" y2="0.145746875" layer="200"/>
<rectangle x1="1.62149375" y1="0.123903125" x2="1.6433375" y2="0.145746875" layer="200"/>
<rectangle x1="-1.6332625" y1="0.145746875" x2="-1.61141875" y2="0.167590625" layer="200"/>
<rectangle x1="-1.414821875" y1="0.145746875" x2="-0.999790625" y2="0.167590625" layer="200"/>
<rectangle x1="-0.213403125" y1="0.145746875" x2="0.201634375" y2="0.167590625" layer="200"/>
<rectangle x1="0.98801875" y1="0.145746875" x2="1.40305" y2="0.167590625" layer="200"/>
<rectangle x1="1.62149375" y1="0.145746875" x2="1.6433375" y2="0.167590625" layer="200"/>
<rectangle x1="-1.6332625" y1="0.167590625" x2="-1.61141875" y2="0.189434375" layer="200"/>
<rectangle x1="-1.414821875" y1="0.167590625" x2="-0.999790625" y2="0.189434375" layer="200"/>
<rectangle x1="-0.213403125" y1="0.167590625" x2="0.201634375" y2="0.189434375" layer="200"/>
<rectangle x1="0.98801875" y1="0.167590625" x2="1.40305" y2="0.189434375" layer="200"/>
<rectangle x1="1.62149375" y1="0.167590625" x2="1.6433375" y2="0.189434375" layer="200"/>
<rectangle x1="-1.6332625" y1="0.189434375" x2="-1.61141875" y2="0.211278125" layer="200"/>
<rectangle x1="-1.414821875" y1="0.189434375" x2="-0.999790625" y2="0.211278125" layer="200"/>
<rectangle x1="-0.213403125" y1="0.189434375" x2="0.201634375" y2="0.211278125" layer="200"/>
<rectangle x1="0.98801875" y1="0.189434375" x2="1.40305" y2="0.211278125" layer="200"/>
<rectangle x1="1.62149375" y1="0.189434375" x2="1.6433375" y2="0.211278125" layer="200"/>
<rectangle x1="-1.6332625" y1="0.211278125" x2="-1.61141875" y2="0.233121875" layer="200"/>
<rectangle x1="-1.414821875" y1="0.211278125" x2="-0.999790625" y2="0.233121875" layer="200"/>
<rectangle x1="-0.213403125" y1="0.211278125" x2="0.201634375" y2="0.233121875" layer="200"/>
<rectangle x1="0.98801875" y1="0.211278125" x2="1.40305" y2="0.233121875" layer="200"/>
<rectangle x1="1.62149375" y1="0.211278125" x2="1.6433375" y2="0.233121875" layer="200"/>
<rectangle x1="-1.6332625" y1="0.233121875" x2="-1.61141875" y2="0.254965625" layer="200"/>
<rectangle x1="-1.414821875" y1="0.233121875" x2="-0.999790625" y2="0.254965625" layer="200"/>
<rectangle x1="-0.213403125" y1="0.233121875" x2="0.201634375" y2="0.254965625" layer="200"/>
<rectangle x1="0.98801875" y1="0.233121875" x2="1.40305" y2="0.254965625" layer="200"/>
<rectangle x1="1.62149375" y1="0.233121875" x2="1.6433375" y2="0.254965625" layer="200"/>
<rectangle x1="-1.6332625" y1="0.254965625" x2="-1.61141875" y2="0.276809375" layer="200"/>
<rectangle x1="-1.414821875" y1="0.254965625" x2="-0.999790625" y2="0.276809375" layer="200"/>
<rectangle x1="-0.213403125" y1="0.254965625" x2="0.201634375" y2="0.276809375" layer="200"/>
<rectangle x1="0.98801875" y1="0.254965625" x2="1.40305" y2="0.276809375" layer="200"/>
<rectangle x1="1.62149375" y1="0.254965625" x2="1.6433375" y2="0.276809375" layer="200"/>
<rectangle x1="-1.6332625" y1="0.276809375" x2="-1.61141875" y2="0.298653125" layer="200"/>
<rectangle x1="-1.414821875" y1="0.276809375" x2="-0.999790625" y2="0.298653125" layer="200"/>
<rectangle x1="-0.213403125" y1="0.276809375" x2="0.201634375" y2="0.298653125" layer="200"/>
<rectangle x1="0.98801875" y1="0.276809375" x2="1.40305" y2="0.298653125" layer="200"/>
<rectangle x1="1.62149375" y1="0.276809375" x2="1.6433375" y2="0.298653125" layer="200"/>
<rectangle x1="-1.6332625" y1="0.298653125" x2="-1.61141875" y2="0.320496875" layer="200"/>
<rectangle x1="-1.414821875" y1="0.298653125" x2="-0.999790625" y2="0.320496875" layer="200"/>
<rectangle x1="-0.213403125" y1="0.298653125" x2="0.201634375" y2="0.320496875" layer="200"/>
<rectangle x1="0.98801875" y1="0.298653125" x2="1.40305" y2="0.320496875" layer="200"/>
<rectangle x1="1.62149375" y1="0.298653125" x2="1.6433375" y2="0.320496875" layer="200"/>
<rectangle x1="-1.6332625" y1="0.320496875" x2="-1.61141875" y2="0.342340625" layer="200"/>
<rectangle x1="-1.414821875" y1="0.320496875" x2="-0.999790625" y2="0.342340625" layer="200"/>
<rectangle x1="-0.213403125" y1="0.320496875" x2="0.201634375" y2="0.342340625" layer="200"/>
<rectangle x1="0.98801875" y1="0.320496875" x2="1.40305" y2="0.342340625" layer="200"/>
<rectangle x1="1.62149375" y1="0.320496875" x2="1.6433375" y2="0.342340625" layer="200"/>
<rectangle x1="-1.6332625" y1="0.342340625" x2="-1.61141875" y2="0.364184375" layer="200"/>
<rectangle x1="-1.414821875" y1="0.342340625" x2="-0.999790625" y2="0.364184375" layer="200"/>
<rectangle x1="-0.213403125" y1="0.342340625" x2="0.201634375" y2="0.364184375" layer="200"/>
<rectangle x1="0.98801875" y1="0.342340625" x2="1.40305" y2="0.364184375" layer="200"/>
<rectangle x1="1.62149375" y1="0.342340625" x2="1.6433375" y2="0.364184375" layer="200"/>
<rectangle x1="-1.6332625" y1="0.3641875" x2="-1.61141875" y2="0.38603125" layer="200"/>
<rectangle x1="-1.414821875" y1="0.3641875" x2="-0.999790625" y2="0.38603125" layer="200"/>
<rectangle x1="-0.213403125" y1="0.3641875" x2="0.201634375" y2="0.38603125" layer="200"/>
<rectangle x1="0.98801875" y1="0.3641875" x2="1.40305" y2="0.38603125" layer="200"/>
<rectangle x1="1.62149375" y1="0.3641875" x2="1.6433375" y2="0.38603125" layer="200"/>
<rectangle x1="-1.6332625" y1="0.38603125" x2="-1.61141875" y2="0.407875" layer="200"/>
<rectangle x1="-1.414821875" y1="0.38603125" x2="-0.999790625" y2="0.407875" layer="200"/>
<rectangle x1="-0.213403125" y1="0.38603125" x2="0.201634375" y2="0.407875" layer="200"/>
<rectangle x1="0.98801875" y1="0.38603125" x2="1.40305" y2="0.407875" layer="200"/>
<rectangle x1="1.62149375" y1="0.38603125" x2="1.6433375" y2="0.407875" layer="200"/>
<rectangle x1="-1.6332625" y1="0.407875" x2="-1.61141875" y2="0.42971875" layer="200"/>
<rectangle x1="-1.414821875" y1="0.407875" x2="-0.999790625" y2="0.42971875" layer="200"/>
<rectangle x1="-0.213403125" y1="0.407875" x2="0.201634375" y2="0.42971875" layer="200"/>
<rectangle x1="0.98801875" y1="0.407875" x2="1.40305" y2="0.42971875" layer="200"/>
<rectangle x1="1.62149375" y1="0.407875" x2="1.6433375" y2="0.42971875" layer="200"/>
<rectangle x1="-1.6332625" y1="0.42971875" x2="-1.61141875" y2="0.4515625" layer="200"/>
<rectangle x1="-1.414821875" y1="0.42971875" x2="-0.999790625" y2="0.4515625" layer="200"/>
<rectangle x1="-0.213403125" y1="0.42971875" x2="0.201634375" y2="0.4515625" layer="200"/>
<rectangle x1="0.98801875" y1="0.42971875" x2="1.40305" y2="0.4515625" layer="200"/>
<rectangle x1="1.62149375" y1="0.42971875" x2="1.6433375" y2="0.4515625" layer="200"/>
<rectangle x1="-1.6332625" y1="0.4515625" x2="-1.61141875" y2="0.47340625" layer="200"/>
<rectangle x1="-1.414821875" y1="0.4515625" x2="-0.999790625" y2="0.47340625" layer="200"/>
<rectangle x1="-0.213403125" y1="0.4515625" x2="0.201634375" y2="0.47340625" layer="200"/>
<rectangle x1="0.98801875" y1="0.4515625" x2="1.40305" y2="0.47340625" layer="200"/>
<rectangle x1="1.62149375" y1="0.4515625" x2="1.6433375" y2="0.47340625" layer="200"/>
<rectangle x1="-1.6332625" y1="0.47340625" x2="-1.61141875" y2="0.49525" layer="200"/>
<rectangle x1="-1.414821875" y1="0.47340625" x2="-0.999790625" y2="0.49525" layer="200"/>
<rectangle x1="-0.213403125" y1="0.47340625" x2="0.201634375" y2="0.49525" layer="200"/>
<rectangle x1="0.98801875" y1="0.47340625" x2="1.40305" y2="0.49525" layer="200"/>
<rectangle x1="1.62149375" y1="0.47340625" x2="1.6433375" y2="0.49525" layer="200"/>
<rectangle x1="-1.6332625" y1="0.49525" x2="-1.61141875" y2="0.51709375" layer="200"/>
<rectangle x1="-1.414821875" y1="0.49525" x2="-0.999790625" y2="0.51709375" layer="200"/>
<rectangle x1="-0.213403125" y1="0.49525" x2="0.201634375" y2="0.51709375" layer="200"/>
<rectangle x1="0.98801875" y1="0.49525" x2="1.40305" y2="0.51709375" layer="200"/>
<rectangle x1="1.62149375" y1="0.49525" x2="1.6433375" y2="0.51709375" layer="200"/>
<rectangle x1="-1.6332625" y1="0.51709375" x2="-1.61141875" y2="0.5389375" layer="200"/>
<rectangle x1="-1.414821875" y1="0.51709375" x2="-0.999790625" y2="0.5389375" layer="200"/>
<rectangle x1="-0.213403125" y1="0.51709375" x2="0.201634375" y2="0.5389375" layer="200"/>
<rectangle x1="0.98801875" y1="0.51709375" x2="1.40305" y2="0.5389375" layer="200"/>
<rectangle x1="1.62149375" y1="0.51709375" x2="1.6433375" y2="0.5389375" layer="200"/>
<rectangle x1="-1.6332625" y1="0.5389375" x2="-1.61141875" y2="0.56078125" layer="200"/>
<rectangle x1="-1.414821875" y1="0.5389375" x2="-0.999790625" y2="0.56078125" layer="200"/>
<rectangle x1="-0.213403125" y1="0.5389375" x2="0.201634375" y2="0.56078125" layer="200"/>
<rectangle x1="0.98801875" y1="0.5389375" x2="1.40305" y2="0.56078125" layer="200"/>
<rectangle x1="1.62149375" y1="0.5389375" x2="1.6433375" y2="0.56078125" layer="200"/>
<rectangle x1="-1.6332625" y1="0.56078125" x2="-1.61141875" y2="0.582625" layer="200"/>
<rectangle x1="-1.414821875" y1="0.56078125" x2="-0.999790625" y2="0.582625" layer="200"/>
<rectangle x1="-0.213403125" y1="0.56078125" x2="0.201634375" y2="0.582625" layer="200"/>
<rectangle x1="0.98801875" y1="0.56078125" x2="1.40305" y2="0.582625" layer="200"/>
<rectangle x1="1.62149375" y1="0.56078125" x2="1.6433375" y2="0.582625" layer="200"/>
<rectangle x1="-1.6332625" y1="0.582625" x2="-1.61141875" y2="0.60446875" layer="200"/>
<rectangle x1="-1.414821875" y1="0.582625" x2="-0.999790625" y2="0.60446875" layer="200"/>
<rectangle x1="-0.213403125" y1="0.582625" x2="0.201634375" y2="0.60446875" layer="200"/>
<rectangle x1="0.98801875" y1="0.582625" x2="1.40305" y2="0.60446875" layer="200"/>
<rectangle x1="1.62149375" y1="0.582625" x2="1.6433375" y2="0.60446875" layer="200"/>
<rectangle x1="-1.6332625" y1="0.60446875" x2="1.6433375" y2="0.6263125" layer="200"/>
<rectangle x1="-1.75005625" y1="-0.769615625" x2="1.74498125" y2="0.764540625" layer="29"/>
<wire x1="-1.2" y1="0" x2="-1.2" y2="1.016" width="0.254" layer="1"/>
<wire x1="-1.2" y1="-1.016" x2="-1.2" y2="0" width="0.254" layer="1"/>
<wire x1="1.2" y1="0" x2="1.2" y2="1.016" width="0.254" layer="1"/>
<wire x1="1.2" y1="0" x2="1.2" y2="-1.016" width="0.254" layer="1"/>
<wire x1="0" y1="0" x2="0" y2="1.016" width="0.254" layer="1"/>
<wire x1="0" y1="0" x2="0" y2="-1.016" width="0.254" layer="1"/>
</package>
</packages>
</library>
<library name="eagle-ltspice">
<description>Default symbols for import LTspice schematics&lt;p&gt;
2012-10-29 alf@cadsoft.de&lt;br&gt;</description>
<packages>
<package name="R0603">
<description>&lt;b&gt;RESISTOR&lt;/b&gt;</description>
<wire x1="-0.432" y1="-0.356" x2="0.432" y2="-0.356" width="0.1524" layer="51"/>
<wire x1="0.432" y1="0.356" x2="-0.432" y2="0.356" width="0.1524" layer="51"/>
<wire x1="-1.473" y1="0.983" x2="1.473" y2="0.983" width="0.0508" layer="39"/>
<wire x1="1.473" y1="0.983" x2="1.473" y2="-0.983" width="0.0508" layer="39"/>
<wire x1="1.473" y1="-0.983" x2="-1.473" y2="-0.983" width="0.0508" layer="39"/>
<wire x1="-1.473" y1="-0.983" x2="-1.473" y2="0.983" width="0.0508" layer="39"/>
<rectangle x1="0.4318" y1="-0.4318" x2="0.8382" y2="0.4318" layer="51"/>
<rectangle x1="-0.8382" y1="-0.4318" x2="-0.4318" y2="0.4318" layer="51"/>
<rectangle x1="-0.1999" y1="-0.4001" x2="0.1999" y2="0.4001" layer="35"/>
<smd name="1" x="-0.85" y="0" dx="1" dy="1.1" layer="1"/>
<smd name="2" x="0.85" y="0" dx="1" dy="1.1" layer="1"/>
<text x="-0.635" y="0.635" size="1.27" layer="25">&gt;NAME</text>
<text x="-0.635" y="-1.905" size="1.27" layer="27">&gt;VALUE</text>
</package>
</packages>
</library>
</libraries>
<attributes>
</attributes>
<variantdefs>
</variantdefs>
<classes>
<class number="0" name="default" width="0.1524" drill="0.2413">
<clearance class="0" value="0.1524"/>
</class>
</classes>
<designrules name="default">
<description language="de">&lt;b&gt;EAGLE Design Rules&lt;/b&gt;
&lt;p&gt;
Die Standard-Design-Rules sind so gewählt, dass sie für 
die meisten Anwendungen passen. Sollte ihre Platine 
besondere Anforderungen haben, treffen Sie die erforderlichen
Einstellungen hier und speichern die Design Rules unter 
einem neuen Namen ab.</description>
<description language="en">&lt;b&gt;EAGLE Design Rules&lt;/b&gt;
&lt;p&gt;
The default Design Rules have been set to cover
a wide range of applications. Your particular design
may have different requirements, so please make the
necessary adjustments and save your customized
design rules under a new name.</description>
<param name="layerSetup" value="(1*16)"/>
<param name="mtCopper" value="0.035mm 0.035mm 0.035mm 0.035mm 0.035mm 0.035mm 0.035mm 0.035mm 0.035mm 0.035mm 0.035mm 0.035mm 0.035mm 0.035mm 0.035mm 0.035mm"/>
<param name="mtIsolate" value="1.5mm 0.15mm 0.2mm 0.15mm 0.2mm 0.15mm 0.2mm 0.15mm 0.2mm 0.15mm 0.2mm 0.15mm 0.2mm 0.15mm 0.2mm"/>
<param name="mdWireWire" value="8mil"/>
<param name="mdWirePad" value="8mil"/>
<param name="mdWireVia" value="8mil"/>
<param name="mdPadPad" value="8mil"/>
<param name="mdPadVia" value="8mil"/>
<param name="mdViaVia" value="8mil"/>
<param name="mdSmdPad" value="8mil"/>
<param name="mdSmdVia" value="8mil"/>
<param name="mdSmdSmd" value="8mil"/>
<param name="mdViaViaSameLayer" value="8mil"/>
<param name="mnLayersViaInSmd" value="2"/>
<param name="mdCopperDimension" value="40mil"/>
<param name="mdDrill" value="8mil"/>
<param name="mdSmdStop" value="0mil"/>
<param name="msWidth" value="10mil"/>
<param name="msDrill" value="24mil"/>
<param name="msMicroVia" value="9.99mm"/>
<param name="msBlindViaRatio" value="0.5"/>
<param name="rvPadTop" value="0.25"/>
<param name="rvPadInner" value="0.25"/>
<param name="rvPadBottom" value="0.25"/>
<param name="rvViaOuter" value="0.25"/>
<param name="rvViaInner" value="0.25"/>
<param name="rvMicroViaOuter" value="0.25"/>
<param name="rvMicroViaInner" value="0.25"/>
<param name="rlMinPadTop" value="10mil"/>
<param name="rlMaxPadTop" value="20mil"/>
<param name="rlMinPadInner" value="10mil"/>
<param name="rlMaxPadInner" value="20mil"/>
<param name="rlMinPadBottom" value="10mil"/>
<param name="rlMaxPadBottom" value="20mil"/>
<param name="rlMinViaOuter" value="8mil"/>
<param name="rlMaxViaOuter" value="20mil"/>
<param name="rlMinViaInner" value="8mil"/>
<param name="rlMaxViaInner" value="20mil"/>
<param name="rlMinMicroViaOuter" value="4mil"/>
<param name="rlMaxMicroViaOuter" value="20mil"/>
<param name="rlMinMicroViaInner" value="4mil"/>
<param name="rlMaxMicroViaInner" value="20mil"/>
<param name="psTop" value="-1"/>
<param name="psBottom" value="-1"/>
<param name="psFirst" value="-1"/>
<param name="psElongationLong" value="100"/>
<param name="psElongationOffset" value="100"/>
<param name="mvStopFrame" value="1"/>
<param name="mvCreamFrame" value="0"/>
<param name="mlMinStopFrame" value="4mil"/>
<param name="mlMaxStopFrame" value="4mil"/>
<param name="mlMinCreamFrame" value="0mil"/>
<param name="mlMaxCreamFrame" value="0mil"/>
<param name="mlViaStopLimit" value="0mil"/>
<param name="srRoundness" value="0"/>
<param name="srMinRoundness" value="0mil"/>
<param name="srMaxRoundness" value="0mil"/>
<param name="slThermalIsolate" value="10mil"/>
<param name="slThermalsForVias" value="0"/>
<param name="dpMaxLengthDifference" value="10mm"/>
<param name="dpGapFactor" value="2.5"/>
<param name="checkGrid" value="0"/>
<param name="checkAngle" value="0"/>
<param name="checkFont" value="1"/>
<param name="checkRestrict" value="1"/>
<param name="useDiameter" value="13"/>
<param name="maxErrors" value="50"/>
</designrules>
<autorouter>
<pass name="Default">
<param name="RoutingGrid" value="50mil"/>
<param name="tpViaShape" value="round"/>
<param name="PrefDir.1" value="|"/>
<param name="PrefDir.2" value="0"/>
<param name="PrefDir.3" value="0"/>
<param name="PrefDir.4" value="0"/>
<param name="PrefDir.5" value="0"/>
<param name="PrefDir.6" value="0"/>
<param name="PrefDir.7" value="0"/>
<param name="PrefDir.8" value="0"/>
<param name="PrefDir.9" value="0"/>
<param name="PrefDir.10" value="0"/>
<param name="PrefDir.11" value="0"/>
<param name="PrefDir.12" value="0"/>
<param name="PrefDir.13" value="0"/>
<param name="PrefDir.14" value="0"/>
<param name="PrefDir.15" value="0"/>
<param name="PrefDir.16" value="-"/>
<param name="cfVia" value="8"/>
<param name="cfNonPref" value="5"/>
<param name="cfChangeDir" value="2"/>
<param name="cfOrthStep" value="2"/>
<param name="cfDiagStep" value="3"/>
<param name="cfExtdStep" value="0"/>
<param name="cfBonusStep" value="1"/>
<param name="cfMalusStep" value="1"/>
<param name="cfPadImpact" value="4"/>
<param name="cfSmdImpact" value="4"/>
<param name="cfBusImpact" value="0"/>
<param name="cfHugging" value="3"/>
<param name="cfAvoid" value="4"/>
<param name="cfPolygon" value="10"/>
<param name="cfBase.1" value="0"/>
<param name="cfBase.2" value="1"/>
<param name="cfBase.3" value="1"/>
<param name="cfBase.4" value="1"/>
<param name="cfBase.5" value="1"/>
<param name="cfBase.6" value="1"/>
<param name="cfBase.7" value="1"/>
<param name="cfBase.8" value="1"/>
<param name="cfBase.9" value="1"/>
<param name="cfBase.10" value="1"/>
<param name="cfBase.11" value="1"/>
<param name="cfBase.12" value="1"/>
<param name="cfBase.13" value="1"/>
<param name="cfBase.14" value="1"/>
<param name="cfBase.15" value="1"/>
<param name="cfBase.16" value="0"/>
<param name="mnVias" value="20"/>
<param name="mnSegments" value="9999"/>
<param name="mnExtdSteps" value="9999"/>
<param name="mnRipupLevel" value="10"/>
<param name="mnRipupSteps" value="100"/>
<param name="mnRipupTotal" value="100"/>
</pass>
<pass name="Follow-me" refer="Default" active="yes">
</pass>
<pass name="Busses" refer="Default" active="yes">
<param name="cfNonPref" value="4"/>
<param name="cfBusImpact" value="4"/>
<param name="cfHugging" value="0"/>
<param name="mnVias" value="0"/>
</pass>
<pass name="Route" refer="Default" active="yes">
</pass>
<pass name="Optimize1" refer="Default" active="yes">
<param name="cfVia" value="99"/>
<param name="cfExtdStep" value="10"/>
<param name="cfHugging" value="1"/>
<param name="mnExtdSteps" value="1"/>
<param name="mnRipupLevel" value="0"/>
</pass>
<pass name="Optimize2" refer="Optimize1" active="yes">
<param name="cfNonPref" value="0"/>
<param name="cfChangeDir" value="6"/>
<param name="cfExtdStep" value="0"/>
<param name="cfBonusStep" value="2"/>
<param name="cfMalusStep" value="2"/>
<param name="cfPadImpact" value="2"/>
<param name="cfSmdImpact" value="2"/>
<param name="cfHugging" value="0"/>
</pass>
<pass name="Optimize3" refer="Optimize2" active="yes">
<param name="cfChangeDir" value="8"/>
<param name="cfPadImpact" value="0"/>
<param name="cfSmdImpact" value="0"/>
</pass>
<pass name="Optimize4" refer="Optimize3" active="yes">
<param name="cfChangeDir" value="25"/>
</pass>
</autorouter>
<elements>
<element name="U$1" library="SparkFun-Retired" package="SPARKFUN-DIGITALIC_QFN-44" value="ATMEGA32U4QFN" x="16.51" y="5.08"/>
<element name="JP1" library="SparkFun-Connectors" package="USB-A-PCB" value="USBPCB" x="2.54" y="5.08"/>
<element name="Y1" library="SparkFun-FreqCtrl" package="RESONATOR-SMD" value="16MHZ" x="10.16" y="5.08" rot="R90">
<attribute name="PROD_ID" value="XTAL-08900" x="10.16" y="5.08" size="1.778" layer="27" rot="R90" display="off"/>
</element>
<element name="R1" library="eagle-ltspice" package="R0603" value="22Ω" x="10.16" y="8.89" rot="R90">
<attribute name="SPICEMODEL" value="NONE" x="10.16" y="8.89" size="1.778" layer="27" rot="R90" display="off"/>
<attribute name="SPICEPREFIX" value="R" x="10.16" y="8.89" size="1.778" layer="27" rot="R90" display="off"/>
</element>
<element name="R2" library="eagle-ltspice" package="R0603" value="22Ω" x="10.16" y="1.27" rot="R90">
<attribute name="SPICEMODEL" value="NONE" x="10.16" y="1.27" size="1.778" layer="27" rot="R90" display="off"/>
<attribute name="SPICEPREFIX" value="R" x="10.16" y="1.27" size="1.778" layer="27" rot="R90" display="off"/>
</element>
</elements>
<signals>
<signal name="N$4">
<contactref element="U$1" pad="5"/>
<contactref element="U$1" pad="43"/>
<contactref element="U$1" pad="23"/>
<wire x1="13.11" y1="5.58" x2="14.51" y2="8.48" width="0" layer="19" extent="1-1"/>
<wire x1="19.91" y1="2.58" x2="13.11" y2="5.58" width="0" layer="19" extent="1-1"/>
</signal>
<signal name="N$5">
<contactref element="U$1" pad="15"/>
</signal>
<signal name="N$7">
<contactref element="U$1" pad="35"/>
</signal>
<signal name="N$1">
<contactref element="U$1" pad="44"/>
<contactref element="U$1" pad="24"/>
<contactref element="U$1" pad="14"/>
<contactref element="U$1" pad="34"/>
<contactref element="JP1" pad="5V"/>
<wire x1="14.01" y1="8.48" x2="19.01" y2="8.48" width="0" layer="19" extent="1-1"/>
<wire x1="19.91" y1="3.08" x2="19.01" y2="8.48" width="0" layer="19" extent="1-1"/>
<wire x1="15.01" y1="1.68" x2="19.91" y2="3.08" width="0" layer="19" extent="1-1"/>
<wire x1="2.34" y1="1.58" x2="15.01" y2="1.68" width="0" layer="19" extent="1-1"/>
</signal>
<signal name="GND">
<contactref element="JP1" pad="GND"/>
</signal>
<signal name="N$2">
<contactref element="JP1" pad="USB_P"/>
</signal>
<signal name="N$3">
<contactref element="JP1" pad="USB_M"/>
</signal>
</signals>
<errors>
<approved hash="5,1,21c627c96e5a0ca7"/>
<approved hash="5,1,23b727296eba0ed6"/>
<approved hash="5,1,274927356eba0a34"/>
<approved hash="5,1,2ad827356e9a0785"/>
<approved hash="5,1,3c2427356ea21141"/>
<approved hash="5,1,30d127356eaa1dbc"/>
<approved hash="5,1,366027356eaa1b0d"/>
<approved hash="5,1,35f327316ea21892"/>
<approved hash="5,1,3e9527356ea213f0"/>
<approved hash="5,1,3b0227316ea21663"/>
<approved hash="5,1,6d00b61aa46e8510"/>
<approved hash="5,1,b3d4b6faa4f6a4db"/>
<approved hash="5,1,20d725faa0f6a0d8"/>
<approved hash="5,1,fe03251aa06e8113"/>
<approved hash="5,1,0f1dd41aa06e810d"/>
<approved hash="5,1,d1c9d4faa0f6a0c6"/>
<approved hash="5,1,9818431aac6e8d08"/>
<approved hash="5,1,46cc43faacf6acc3"/>
<approved hash="5,1,f7cef2faacf6acc1"/>
<approved hash="5,1,291af21aac6e8d0a"/>
<approved hash="5,1,64c161faa0f6a0ce"/>
<approved hash="5,1,86838c15cb71d718"/>
<approved hash="5,1,ba15611aa06e8105"/>
<approved hash="5,1,15c310faa0f6a0cc"/>
<approved hash="5,1,cb17101aa06e8107"/>
<approved hash="5,1,3bae95828b3bff03"/>
<approved hash="5,1,54118f1aa46e8501"/>
<approved hash="5,1,8ac58ffaa4f6a4ca"/>
<approved hash="5,1,c1a3ff48a2727e30"/>
<approved hash="5,1,3bb83efaa4f6a4b7"/>
<approved hash="5,1,e56c3e1aa46e857c"/>
<approved hash="5,1,766ead1aa06e817e"/>
<approved hash="5,1,a8baadfaa0f6a0b5"/>
<approved hash="5,1,6a8ca7af4df3ff70"/>
<approved hash="5,1,6b2a5b3516ba0a57"/>
<approved hash="5,1,6da55bc9165a0cc4"/>
<approved hash="5,1,66bb5b35169a07e6"/>
<approved hash="5,1,7cb25b3516aa1ddf"/>
<approved hash="5,1,6fd45b2916ba0eb5"/>
<approved hash="5,1,7a035b3516aa1b6e"/>
<approved hash="5,1,70475b3516a21122"/>
<approved hash="5,1,79905b3116a218f1"/>
<approved hash="5,1,72f65b3516a21393"/>
<approved hash="5,1,77615b3116a21600"/>
</errors>
</board>
</drawing>
</eagle>
